{
  "project_info": {
    "project_number": "539733384189",
    "project_id": "sabzee1-23585",
    "storage_bucket": "sabzee1-23585.appspot.com"
  },
  "client": [
    {
      "client_info": {
        "mobilesdk_app_id": "1:539733384189:android:2c7ebd3ebd2b2dd0379794",
        "android_client_info": {
          "package_name": "com.example.sabzee3"
        }
      },
      "oauth_client": [
        {
          "client_id": "539733384189-9t951cb0qmp5s7qcosqpsmfpdgt4vvas.apps.googleusercontent.com",
          "client_type": 1,
          "android_info": {
            "package_name": "com.example.sabzee3",
            "certificate_hash": "b0360908a952497c87011a529eef62501c34697f"
          }
        },
        {
          "client_id": "539733384189-3ubttosh2sgjorrdcneq97dhcgqn19j7.apps.googleusercontent.com",
          "client_type": 3
        }
      ],
      "api_key": [
        {
          "current_key": "AIzaSyBTbpUJs7NWmOQuRxI784aOzFTOGeRcAs4"
        }
      ],
      "services": {
        "appinvite_service": {
          "other_platform_oauth_client": [
            {
              "client_id": "539733384189-3ubttosh2sgjorrdcneq97dhcgqn19j7.apps.googleusercontent.com",
              "client_type": 3
            }
          ]
        }
      }
    }
  ],
  "configuration_version": "1"
}